﻿{
  "order": [
    {
      "amount": 22,
      "shipping": 1.5,
      "from_city": "La Jolla",
      "from_state": "CA",
      "from_country": "US",
      "from_zip": 92093,
      "to_city": "San Francisco",
      "to_state": "CA",
      "to_zip": 94110,
      "to_country": "US"
    },
    {
      "amount": 15,
      "shipping": 1.5,
      "from_city": "La Jolla",
      "from_state": "CA",
      "from_country": "US",
      "from_zip": 92093,
      "to_city": "Los Angeles",
      "to_state": "CA",
      "to_zip": 90002,
      "to_country": "US"
    }
  ]
}
